\begin{thebibliography}{1}

\bibitem{Garcia2010}
Damien Garcia, Juan~C del {\'A}lamo, David Tann{\'e}, Raquel Yotti, Cristina
  Cortina, {\'E}ric Bertrand, Jos{\'e}~Carlos Antoranz, Esther P{\'e}rez-David,
  R{\'e}gis Rieu, Francisco Fern{\'a}ndez-Avil{\'e}s, et~al.
\newblock Two-dimensional intraventricular flow mapping by digital processing
  conventional color-doppler echocardiography images.
\newblock {\em IEEE transactions on medical imaging}, 29(10):1701--1713, 2010.

\end{thebibliography}
