\relax 
\citation{Garcia2010}
\citation{Garcia2010}
\@writefile{toc}{\contentsline {section}{\numberline {1}Introduction}{1}}
\@writefile{lof}{\contentsline {figure}{\numberline {1}{\ignorespaces 2D colour Doppler image of a fetal heart.\relax }}{1}}
\providecommand*\caption@xref[2]{\@setref\relax\@undefined{#1}}
\newlabel{fig:doppler}{{1}{1}}
\citation{Garcia2010}
\@writefile{toc}{\contentsline {section}{\numberline {2}Tutorial}{2}}
\@writefile{toc}{\contentsline {subsection}{\numberline {2.1}Environment set-up}{2}}
\@writefile{toc}{\contentsline {subsection}{\numberline {2.2}Segment the ventricular masks}{2}}
\newlabel{fig:seg1}{{2a}{3}}
\newlabel{sub@fig:seg1}{{(a)}{a}}
\newlabel{fig:seg2}{{2b}{3}}
\newlabel{sub@fig:seg2}{{(b)}{b}}
\newlabel{fig:seg3}{{2c}{3}}
\newlabel{sub@fig:seg3}{{(c)}{c}}
\newlabel{fig:seg4}{{2d}{3}}
\newlabel{sub@fig:seg4}{{(d)}{d}}
\@writefile{lof}{\contentsline {figure}{\numberline {2}{\ignorespaces Image segmentation with the SimpleViewer\_{GUI}.\relax }}{3}}
\newlabel{fig:doppler}{{2}{3}}
\@writefile{lof}{\contentsline {subfigure}{\numberline{(a)}{\ignorespaces {}}}{3}}
\@writefile{lof}{\contentsline {subfigure}{\numberline{(b)}{\ignorespaces {}}}{3}}
\@writefile{lof}{\contentsline {subfigure}{\numberline{(c)}{\ignorespaces {}}}{3}}
\@writefile{lof}{\contentsline {subfigure}{\numberline{(d)}{\ignorespaces {}}}{3}}
\@writefile{toc}{\contentsline {subsection}{\numberline {2.3}Convert images to polar coordinates}{3}}
\@writefile{toc}{\contentsline {subsection}{\numberline {2.4}Data preprocessing}{4}}
\@writefile{toc}{\contentsline {subsection}{\numberline {2.5}Compute the missing component of the velocity}{4}}
\newlabel{eq:vel1}{{1}{4}}
\@writefile{toc}{\contentsline {subsection}{\numberline {2.6}Convert the reconstructed velocity to Cartesian coordinates}{4}}
\bibstyle{plain}
\bibdata{jobname}
\bibcite{Garcia2010}{1}
\@writefile{toc}{\contentsline {subsection}{\numberline {2.7}Visualize}{5}}
\@writefile{toc}{\contentsline {section}{References}{5}}
